Practica2/simulation/qsim/PR2_GRPA1_P10.msim.vcd
$comment
	File created using the following command:
		vcd file PR2_GRPA1_P10.msim.vcd -direction
$end
$date
	Thu Apr 02 16:38:46 2020
$end
$version
	ModelSim Version 10.5b
$end
$timescale
	1ps
$end

$scope module pr2_mayor_menor_vhd_vec_tst $end
$var wire 1 ! A [3] $end
$var wire 1 " A [2] $end
$var wire 1 # A [1] $end
$var wire 1 $ A [0] $end
$var wire 1 % B [3] $end
$var wire 1 & B [2] $end
$var wire 1 ' B [1] $end
$var wire 1 ( B [0] $end
$var wire 1 ) EN $end
$var wire 1 * M_m $end
$var wire 1 + MUX_OUT [3] $end
$var wire 1 , MUX_OUT [2] $end
$var wire 1 - MUX_OUT [1] $end
$var wire 1 . MUX_OUT [0] $end

$scope module i1 $end
$var wire 1 / gnd $end
$var wire 1 0 vcc $end
$var wire 1 1 unknown $end
$var wire 1 2 devoe $end
$var wire 1 3 devclrn $end
$var wire 1 4 devpor $end
$var wire 1 5 ww_devoe $end
$var wire 1 6 ww_devclrn $end
$var wire 1 7 ww_devpor $end
$var wire 1 8 ww_MUX_OUT [3] $end
$var wire 1 9 ww_MUX_OUT [2] $end
$var wire 1 : ww_MUX_OUT [1] $end
$var wire 1 ; ww_MUX_OUT [0] $end
$var wire 1 < ww_EN $end
$var wire 1 = ww_A [3] $end
$var wire 1 > ww_A [2] $end
$var wire 1 ? ww_A [1] $end
$var wire 1 @ ww_A [0] $end
$var wire 1 A ww_B [3] $end
$var wire 1 B ww_B [2] $end
$var wire 1 C ww_B [1] $end
$var wire 1 D ww_B [0] $end
$var wire 1 E ww_M_m $end
$var wire 1 F \EN~combout\ $end
$var wire 1 G \M_m~combout\ $end
$var wire 1 H \inst2|GT~0_combout\ $end
$var wire 1 I \inst3~0_combout\ $end
$var wire 1 J \inst3~1_combout\ $end
$var wire 1 K \inst3~2_combout\ $end
$var wire 1 L \inst|MUX_OUT[3]~0_combout\ $end
$var wire 1 M \inst|MUX_OUT[2]~1_combout\ $end
$var wire 1 N \inst|MUX_OUT[1]~2_combout\ $end
$var wire 1 O \inst|MUX_OUT[0]~3_combout\ $end
$var wire 1 P \B~combout\ [3] $end
$var wire 1 Q \B~combout\ [2] $end
$var wire 1 R \B~combout\ [1] $end
$var wire 1 S \B~combout\ [0] $end
$var wire 1 T \A~combout\ [3] $end
$var wire 1 U \A~combout\ [2] $end
$var wire 1 V \A~combout\ [1] $end
$var wire 1 W \A~combout\ [0] $end
$upscope $end
$upscope $end
$enddefinitions $end
#0
$dumpvars
0)
0*
0/
10
x1
12
13
14
15
16
17
0<
0E
0F
0G
1H
0I
0J
0K
0L
0M
1N
1O
0!
0"
1#
1$
1%
1&
0'
0(
08
09
1:
1;
0=
0>
1?
1@
1A
1B
0C
0D
1P
1Q
0R
0S
0T
0U
1V
1W
0+
0,
1-
1.
$end
#120000
1*
1E
1G
1K
1L
1M
0N
0O
0;
0:
19
18
0.
0-
1,
1+
#150000
1!
1'
1=
1C
1R
1T
1N
1:
1-
#280000
0$
0@
0W
0H
#380000
0*
0E
0G
0K
0M
09
0,
#400000
0!
0#
0%
0&
1(
0?
0=
1D
0B
0A
0P
0Q
1S
0T
0V
0N
0L
08
0:
0-
0+
#470000
1%
0'
0C
1A
1P
0R
#570000
0%
0(
0D
0A
0P
0S
#580000
1!
1#
1$
1"
1@
1?
1>
1=
1T
1U
1V
1W
1O
1H
1N
1I
1M
1J
1L
18
1K
19
1:
1;
1.
1-
1,
1+
0L
0M
0N
0O
0;
0:
09
08
0.
0-
0,
0+
#720000
1*
1E
1G
0K
1L
1M
1N
1O
1;
1:
19
18
1.
1-
1,
1+
#750000
0!
0"
1(
1&
0>
0=
1D
1B
1Q
1S
0T
0U
0L
0I
0M
09
0J
08
0,
0+
1K
1M
0N
0:
19
0-
1,
#870000
0(
0&
0#
0$
1)
0D
0B
0@
0?
1<
1F
0V
0W
0Q
0S
1I
0H
0M
0O
0;
09
0I
1J
0.
0,
0J
#910000
0*
0E
0G
0K
#930000
1&
1'
1C
1B
1Q
1R
