Practica3/simulation/qsim/PR4_GRPA1_P10.msim.vcd
$comment
	File created using the following command:
		vcd file PR4_GRPA1_P10.msim.vcd -direction
$end
$date
	Fri May 08 12:12:39 2020
$end
$version
	ModelSim Version 10.5b
$end
$timescale
	1ps
$end

$scope module pr4_grpa1_p10_vhd_vec_tst $end
$var wire 1 ! CLK $end
$var wire 1 " COUNT [3] $end
$var wire 1 # COUNT [2] $end
$var wire 1 $ COUNT [1] $end
$var wire 1 % COUNT [0] $end
$var wire 1 & D [3] $end
$var wire 1 ' D [2] $end
$var wire 1 ( D [1] $end
$var wire 1 ) D [0] $end
$var wire 1 * LOAD $end
$var wire 1 + RESET $end
$var wire 1 , SEG_A $end
$var wire 1 - SEG_B $end
$var wire 1 . SEG_C $end
$var wire 1 / SEG_D $end
$var wire 1 0 SEG_E $end
$var wire 1 1 SEG_F $end
$var wire 1 2 SEG_G $end
$var wire 1 3 STOP_GO $end

$scope module i1 $end
$var wire 1 4 gnd $end
$var wire 1 5 vcc $end
$var wire 1 6 unknown $end
$var wire 1 7 devoe $end
$var wire 1 8 devclrn $end
$var wire 1 9 devpor $end
$var wire 1 : ww_devoe $end
$var wire 1 ; ww_devclrn $end
$var wire 1 < ww_devpor $end
$var wire 1 = ww_SEG_A $end
$var wire 1 > ww_COUNT [3] $end
$var wire 1 ? ww_COUNT [2] $end
$var wire 1 @ ww_COUNT [1] $end
$var wire 1 A ww_COUNT [0] $end
$var wire 1 B ww_LOAD $end
$var wire 1 C ww_RESET $end
$var wire 1 D ww_CLK $end
$var wire 1 E ww_STOP_GO $end
$var wire 1 F ww_D [3] $end
$var wire 1 G ww_D [2] $end
$var wire 1 H ww_D [1] $end
$var wire 1 I ww_D [0] $end
$var wire 1 J ww_SEG_B $end
$var wire 1 K ww_SEG_C $end
$var wire 1 L ww_SEG_D $end
$var wire 1 M ww_SEG_E $end
$var wire 1 N ww_SEG_F $end
$var wire 1 O ww_SEG_G $end
$var wire 1 P \CLK~combout\ $end
$var wire 1 Q \LOAD~combout\ $end
$var wire 1 R \RESET~combout\ $end
$var wire 1 S \inst6|inst|18~2_combout\ $end
$var wire 1 T \inst6|inst|21~0_combout\ $end
$var wire 1 U \inst6|inst|22~0_combout\ $end
$var wire 1 V \inst6|inst|24~0_combout\ $end
$var wire 1 W \STOP_GO~combout\ $end
$var wire 1 X \inst2|inst|aux_Q~regout\ $end
$var wire 1 Y \inst2|inst2|aux_Q~regout\ $end
$var wire 1 Z \inst|inst2|count[0]~3\ $end
$var wire 1 [ \inst|inst2|count[1]~5\ $end
$var wire 1 \ \inst|inst2|count[1]~5COUT1_65\ $end
$var wire 1 ] \inst|inst2|count[2]~1\ $end
$var wire 1 ^ \inst|inst2|count[2]~1COUT1_66\ $end
$var wire 1 _ \inst|inst2|count[3]~7\ $end
$var wire 1 ` \inst|inst2|count[3]~7COUT1_67\ $end
$var wire 1 a \inst|inst2|count[4]~9\ $end
$var wire 1 b \inst|inst2|count[4]~9COUT1_68\ $end
$var wire 1 c \inst|inst2|count[5]~11\ $end
$var wire 1 d \inst|inst2|count[6]~13\ $end
$var wire 1 e \inst|inst2|count[6]~13COUT1_69\ $end
$var wire 1 f \inst|inst2|count[7]~15\ $end
$var wire 1 g \inst|inst2|count[7]~15COUT1_70\ $end
$var wire 1 h \inst|inst2|count[8]~17\ $end
$var wire 1 i \inst|inst2|count[8]~17COUT1_71\ $end
$var wire 1 j \inst|inst2|count[9]~19\ $end
$var wire 1 k \inst|inst2|count[9]~19COUT1_72\ $end
$var wire 1 l \inst|inst2|count[10]~21\ $end
$var wire 1 m \inst|inst|Equal0~2_combout\ $end
$var wire 1 n \inst|inst|Equal0~0_combout\ $end
$var wire 1 o \inst|inst2|count[11]~23\ $end
$var wire 1 p \inst|inst2|count[11]~23COUT1_73\ $end
$var wire 1 q \inst|inst2|count[12]~25\ $end
$var wire 1 r \inst|inst2|count[12]~25COUT1_74\ $end
$var wire 1 s \inst|inst2|count[13]~27\ $end
$var wire 1 t \inst|inst2|count[13]~27COUT1_75\ $end
$var wire 1 u \inst|inst2|count[14]~29\ $end
$var wire 1 v \inst|inst2|count[14]~29COUT1_76\ $end
$var wire 1 w \inst|inst|Equal0~3_combout\ $end
$var wire 1 x \inst|inst|Equal0~1_combout\ $end
$var wire 1 y \inst|inst|Equal0~4_combout\ $end
$var wire 1 z \inst|inst1~combout\ $end
$var wire 1 { \inst|inst2|count[15]~31\ $end
$var wire 1 | \inst|inst2|count[16]~33\ $end
$var wire 1 } \inst|inst2|count[16]~33COUT1_77\ $end
$var wire 1 ~ \inst|inst2|count[17]~35\ $end
$var wire 1 !! \inst|inst2|count[17]~35COUT1_78\ $end
$var wire 1 "! \inst|inst2|count[18]~37\ $end
$var wire 1 #! \inst|inst2|count[18]~37COUT1_79\ $end
$var wire 1 $! \inst|inst|Equal0~5_combout\ $end
$var wire 1 %! \inst|inst2|count[19]~39\ $end
$var wire 1 &! \inst|inst2|count[19]~39COUT1_80\ $end
$var wire 1 '! \inst|inst2|count[20]~41\ $end
$var wire 1 (! \inst|inst2|count[21]~43\ $end
$var wire 1 )! \inst|inst2|count[21]~43COUT1_81\ $end
$var wire 1 *! \inst|inst2|count[22]~45\ $end
$var wire 1 +! \inst|inst2|count[22]~45COUT1_82\ $end
$var wire 1 ,! \inst|inst|Equal0~6_combout\ $end
$var wire 1 -! \inst|inst2|count[23]~47\ $end
$var wire 1 .! \inst|inst2|count[23]~47COUT1_83\ $end
$var wire 1 /! \inst|inst2|count[24]~49\ $end
$var wire 1 0! \inst|inst2|count[24]~49COUT1_84\ $end
$var wire 1 1! \inst|inst2|count[25]~51\ $end
$var wire 1 2! \inst|inst2|count[26]~53\ $end
$var wire 1 3! \inst|inst2|count[26]~53COUT1_85\ $end
$var wire 1 4! \inst|inst2|count[27]~55\ $end
$var wire 1 5! \inst|inst2|count[27]~55COUT1_86\ $end
$var wire 1 6! \inst|inst2|count[28]~57\ $end
$var wire 1 7! \inst|inst2|count[28]~57COUT1_87\ $end
$var wire 1 8! \inst|inst2|count[29]~59\ $end
$var wire 1 9! \inst|inst2|count[29]~59COUT1_88\ $end
$var wire 1 :! \inst|inst2|count[30]~61\ $end
$var wire 1 ;! \inst|inst|Equal0~8_combout\ $end
$var wire 1 <! \inst|inst|Equal0~7_combout\ $end
$var wire 1 =! \inst|inst|Equal0~9_combout\ $end
$var wire 1 >! \inst6|inst|42~0_combout\ $end
$var wire 1 ?! \inst6|inst|43~regout\ $end
$var wire 1 @! \inst6|inst|22~1_combout\ $end
$var wire 1 A! \inst6|inst|22~2_combout\ $end
$var wire 1 B! \inst6|inst|44~regout\ $end
$var wire 1 C! \inst6|inst|20~0_combout\ $end
$var wire 1 D! \inst6|inst|20~1_combout\ $end
$var wire 1 E! \inst6|inst|45~regout\ $end
$var wire 1 F! \inst6|inst|18~3_combout\ $end
$var wire 1 G! \inst6|inst|42~1_combout\ $end
$var wire 1 H! \inst6|inst|46~regout\ $end
$var wire 1 I! \inst4|81~0_combout\ $end
$var wire 1 J! \inst4|82~0_combout\ $end
$var wire 1 K! \inst4|83~combout\ $end
$var wire 1 L! \inst4|84~0_combout\ $end
$var wire 1 M! \inst4|85~combout\ $end
$var wire 1 N! \inst4|86~0_combout\ $end
$var wire 1 O! \inst4|87~combout\ $end
$var wire 1 P! \D~combout\ [3] $end
$var wire 1 Q! \D~combout\ [2] $end
$var wire 1 R! \D~combout\ [1] $end
$var wire 1 S! \D~combout\ [0] $end
$var wire 1 T! \inst|inst2|count\ [31] $end
$var wire 1 U! \inst|inst2|count\ [30] $end
$var wire 1 V! \inst|inst2|count\ [29] $end
$var wire 1 W! \inst|inst2|count\ [28] $end
$var wire 1 X! \inst|inst2|count\ [27] $end
$var wire 1 Y! \inst|inst2|count\ [26] $end
$var wire 1 Z! \inst|inst2|count\ [25] $end
$var wire 1 [! \inst|inst2|count\ [24] $end
$var wire 1 \! \inst|inst2|count\ [23] $end
$var wire 1 ]! \inst|inst2|count\ [22] $end
$var wire 1 ^! \inst|inst2|count\ [21] $end
$var wire 1 _! \inst|inst2|count\ [20] $end
$var wire 1 `! \inst|inst2|count\ [19] $end
$var wire 1 a! \inst|inst2|count\ [18] $end
$var wire 1 b! \inst|inst2|count\ [17] $end
$var wire 1 c! \inst|inst2|count\ [16] $end
$var wire 1 d! \inst|inst2|count\ [15] $end
$var wire 1 e! \inst|inst2|count\ [14] $end
$var wire 1 f! \inst|inst2|count\ [13] $end
$var wire 1 g! \inst|inst2|count\ [12] $end
$var wire 1 h! \inst|inst2|count\ [11] $end
$var wire 1 i! \inst|inst2|count\ [10] $end
$var wire 1 j! \inst|inst2|count\ [9] $end
$var wire 1 k! \inst|inst2|count\ [8] $end
$var wire 1 l! \inst|inst2|count\ [7] $end
$var wire 1 m! \inst|inst2|count\ [6] $end
$var wire 1 n! \inst|inst2|count\ [5] $end
$var wire 1 o! \inst|inst2|count\ [4] $end
$var wire 1 p! \inst|inst2|count\ [3] $end
$var wire 1 q! \inst|inst2|count\ [2] $end
$var wire 1 r! \inst|inst2|count\ [1] $end
$var wire 1 s! \inst|inst2|count\ [0] $end
$upscope $end
$upscope $end
$enddefinitions $end
#0
$dumpvars
0!
0*
1+
0,
0-
0.
0/
00
01
12
03
04
15
x6
17
18
19
1:
1;
1<
0=
0B
1C
0D
0E
0J
0K
0L
0M
0N
1O
0P
0Q
1R
0S
0T
0U
0V
0W
0X
0Y
0Z
1[
1\
0]
0^
1_
1`
0a
0b
1c
0d
0e
1f
1g
0h
0i
1j
1k
0l
1m
0n
1o
1p
0q
0r
1s
1t
0u
0v
1w
1x
0y
1z
1{
0|
0}
1~
1!!
0"!
0#!
1$!
1%!
1&!
0'!
1(!
1)!
0*!
0+!
1,!
1-!
1.!
0/!
00!
11!
02!
03!
14!
15!
06!
07!
18!
19!
0:!
1;!
1<!
1=!
0>!
0?!
0@!
0A!
0B!
0C!
0D!
0E!
0F!
0G!
0H!
0I!
0J!
0K!
0L!
0M!
0N!
1O!
1&
0'
0(
0)
0>
0?
0@
0A
1F
0G
0H
0I
1P!
0Q!
0R!
0S!
0T!
0U!
0V!
0W!
0X!
0Y!
0Z!
0[!
0\!
0]!
0^!
0_!
0`!
0a!
0b!
0c!
0d!
0e!
0f!
0g!
0h!
0i!
0j!
0k!
0l!
0m!
0n!
0o!
0p!
0q!
0r!
0s!
0"
0#
0$
0%
$end
#10000
1!
1D
1P
#20000
0!
0+
13
0D
0C
1E
1W
0R
0P
1T
0z
#30000
1!
1D
1P
1s!
1Y
1X
1Z
#40000
0!
0D
0P
#50000
1!
1D
1P
1r!
0s!
0Z
0\
#60000
0!
0D
0P
#70000
1!
1D
1P
1s!
1Z
#80000
0!
0D
0P
#90000
1!
1D
1P
1q!
0r!
0s!
0Z
1\
1^
1n
1y
0^
1z
1>!
1@!
#100000
0!
03
0D
0E
0W
0P
#110000
1!
1D
1P
1?!
0q!
0X
0n
1A!
1I!
1L!
1M!
1N!
1A
1%
1N
1M
1L
1=
0y
11
10
1/
1,
0z
0>!
0@!
0A!
#120000
0!
0D
0P
#130000
1!
1D
1P
1s!
1Z
#140000
0!
0D
0P
#150000
1!
1D
1P
1r!
0s!
0Z
0\
#160000
0!
0D
0P
#170000
1!
1D
1P
1s!
1Z
#180000
0!
0D
0P
#190000
1!
1D
1P
1q!
0r!
0s!
0Z
1\
1^
1n
1y
0^
1z
1>!
1@!
1A!
#200000
0!
0D
0P
#210000
1!
1D
1P
1B!
0?!
0q!
0n
0A!
0A
0I!
1K!
0L!
0M!
0O!
1@
0%
1$
0O
0M
0L
1K
0=
0y
02
00
0/
1.
0,
0z
0>!
0@!
#220000
0!
0D
0P
#230000
1!
1D
1P
1s!
1Z
#240000
0!
0D
0P
#250000
1!
1D
1P
1r!
0s!
0Z
0\
#260000
0!
0D
0P
#270000
1!
1D
1P
1s!
1Z
#280000
0!
0D
0P
#290000
1!
1D
1P
1q!
0r!
0s!
0Z
1\
1^
1n
1y
0^
1z
1>!
1@!
#300000
0!
0D
0P
#310000
1!
1D
1P
1?!
0q!
0n
1A!
1C!
0K!
1M!
1A
1%
1M
0K
1D!
0y
10
0.
0z
0>!
0@!
0A!
0D!
#320000
0!
1*
0D
1B
1Q
0P
1S
0T
#330000
1!
1D
1P
1H!
0B!
0?!
1s!
1Z
0A
0C!
0M!
0@
0N!
1>
0%
0$
1"
0N
0M
01
00
#340000
0!
0D
0P
#350000
1!
1D
1P
1r!
0s!
0Z
0\
#360000
0!
0D
0P
#370000
1!
1D
1P
1s!
1Z
#380000
0!
0*
0D
0B
0Q
0P
0S
1T
1G!
#390000
1!
1D
1P
1q!
0r!
0s!
0Z
1\
1^
1n
1y
0^
1z
1>!
1@!
#400000
0!
0D
0P
#410000
1!
1D
1P
1?!
0q!
0n
0G!
1L!
1M!
1A
1%
1M
1L
0y
10
1/
0z
0>!
0@!
1G!
#420000
0!
0D
0P
#430000
1!
1D
1P
1s!
1Z
#440000
0!
0D
0P
#450000
1!
1D
1P
1r!
0s!
0Z
0\
#460000
0!
0D
0P
#470000
1!
1D
1P
1s!
1Z
#480000
0!
0D
0P
#490000
1!
1D
1P
1q!
0r!
0s!
0Z
1\
1^
1n
1y
0^
1z
1>!
1@!
0G!
#500000
0!
0D
0P
#510000
1!
1D
1P
0H!
0?!
0q!
0n
0L!
0M!
0A
1O!
0>
0%
0"
1O
0M
0L
0y
12
00
0/
0z
0>!
0@!
#520000
0!
0D
0P
#530000
1!
1D
1P
1s!
1Z
#540000
0!
0D
0P
#550000
1!
1D
1P
1r!
0s!
0Z
0\
#560000
0!
0D
0P
#570000
1!
1D
1P
1s!
1Z
#580000
0!
0D
0P
#590000
1!
1D
1P
1q!
0r!
0s!
0Z
1\
1^
1n
1y
0^
1z
1>!
1@!
#600000
0!
0D
0P
#610000
1!
1D
1P
1?!
0q!
0n
1A!
1I!
1L!
1M!
1N!
1A
1%
1N
1M
1L
1=
0y
11
10
1/
1,
0z
0>!
0@!
0A!
#620000
0!
0D
0P
#630000
1!
1D
1P
1s!
1Z
#640000
0!
13
0D
1E
1W
0P
#650000
1!
1D
1P
1r!
0s!
0Y
1X
0Z
0\
#660000
0!
0D
0P
#670000
1!
1D
1P
1s!
1Z
#680000
0!
0D
0P
#690000
1!
1D
1P
1q!
0r!
0s!
0Z
1\
1^
1n
1y
0^
1z
#700000
0!
0D
0P
#710000
1!
1D
1P
0q!
0n
0y
0z
#720000
0!
0D
0P
#730000
1!
1D
1P
1s!
1Z
#740000
0!
0D
0P
#750000
1!
1D
1P
1r!
0s!
0Z
0\
#760000
0!
0D
0P
#770000
1!
03
1D
0E
0W
1P
1s!
1Z
#780000
0!
0D
0P
#790000
1!
1D
1P
1q!
0r!
0s!
0X
0Z
1\
1^
1n
1y
0^
1z
#800000
0!
0D
0P
#810000
1!
1D
1P
0q!
0n
0y
0z
#820000
0!
0D
0P
#830000
1!
1D
1P
1s!
1Z
#840000
0!
0D
0P
#850000
1!
1D
1P
1r!
0s!
0Z
0\
#860000
0!
0D
0P
#870000
1!
1D
1P
1s!
1Z
#880000
0!
0D
0P
#890000
1!
1D
1P
1q!
0r!
0s!
0Z
1\
1^
1n
1y
0^
1z
#900000
0!
0D
0P
#910000
1!
1D
1P
0q!
0n
0y
0z
#920000
0!
0D
0P
#930000
1!
1D
1P
1s!
1Z
#940000
0!
0D
0P
#950000
1!
1D
1P
1r!
0s!
0Z
0\
#960000
0!
0D
0P
#970000
1!
1D
1P
1s!
1Z
#980000
0!
0D
0P
#990000
1!
1D
1P
1q!
0r!
0s!
0Z
1\
1^
1n
1y
0^
1z
